,open time,open,high,low,close,volume,close time,quote asset volume,number of trades,taker buy base asset volume,taker buy quote asset volume,ignore
0,1522304640000,0.00049000,0.00049000,0.00035000,0.00035000,2456.00000000,1522304699999,1.12238000,5,1877.00000000,0.91973000,0
1,1522304700000,0.00031112,0.00042000,0.00031112,0.00036201,297854.00000000,1522304759999,109.73263622,114,135272.00000000,50.57647858,0
2,1522304760000,0.00036000,0.00036201,0.00032003,0.00034427,356873.00000000,1522304819999,122.85461905,69,269370.00000000,92.84637707,0
3,1522304820000,0.00035000,0.00037990,0.00035000,0.00036915,148415.00000000,1522304879999,54.76501167,97,79058.00000000,29.58352681,0
4,1522304880000,0.00036800,0.00036800,0.00033000,0.00033000,235768.00000000,1522304939999,81.87243441,94,13313.00000000,4.58872752,0
5,1522304940000,0.00033000,0.00035900,0.00033000,0.00035700,240267.00000000,1522304999999,82.88478536,125,160394.00000000,55.74468389,0
6,1522305000000,0.00035697,0.00035899,0.00034447,0.00034999,104953.00000000,1522305059999,37.05983940,86,95088.00000000,33.63872090,0
7,1522305060000,0.00034999,0.00035001,0.00033501,0.00034600,185915.00000000,1522305119999,64.02556326,79,44356.00000000,15.13466551,0
8,1522305120000,0.00034000,0.00034990,0.00033300,0.00034990,287333.00000000,1522305179999,98.14847636,128,206926.00000000,70.98304748,0
9,1522305180000,0.00034990,0.00034990,0.00033501,0.00034499,69083.00000000,1522305239999,23.74487746,78,31359.00000000,10.88593411,0
10,1522305240000,0.00034980,0.00034988,0.00033445,0.00033445,186905.00000000,1522305299999,63.78724723,110,105428.00000000,36.21473360,0
11,1522305300000,0.00033946,0.00033946,0.00032000,0.00032511,362068.00000000,1522305359999,118.70517079,167,64023.00000000,21.01862393,0
12,1522305360000,0.00032509,0.00032797,0.00030000,0.00031547,359888.00000000,1522305419999,109.97331484,102,26906.00000000,8.63499402,0
13,1522305420000,0.00030195,0.00031499,0.00030195,0.00031001,44183.00000000,1522305479999,13.70764319,64,32443.00000000,10.10014727,0
14,1522305480000,0.00031002,0.00031270,0.00030000,0.00031000,228489.00000000,1522305539999,69.93266960,83,148399.00000000,45.57467318,0
15,1522305540000,0.00031000,0.00031000,0.00030000,0.00030000,248567.00000000,1522305599999,75.68965250,87,143129.00000000,43.97432167,0
16,1522305600000,0.00030006,0.00031001,0.00030000,0.00031000,276811.00000000,1522305659999,85.55868373,90,258462.00000000,79.96784866,0
17,1522305660000,0.00031200,0.00032399,0.00030500,0.00031124,334850.00000000,1522305719999,105.22230054,150,293377.00000000,92.16925125,0
18,1522305720000,0.00031160,0.00031200,0.00030301,0.00030996,111567.00000000,1522305779999,34.48021146,45,4354.00000000,1.35205760,0
19,1522305780000,0.00030899,0.00031186,0.00030156,0.00030988,98906.00000000,1522305839999,30.41282768,61,52198.00000000,16.14446285,0
20,1522305840000,0.00030987,0.00031185,0.00030406,0.00031183,80977.00000000,1522305899999,25.04148350,32,31088.00000000,9.58378283,0
21,1522305900000,0.00031183,0.00031375,0.00030814,0.00031150,111334.00000000,1522305959999,34.68328384,62,85436.00000000,26.65839429,0
22,1522305960000,0.00031001,0.00031149,0.00030800,0.00031000,120374.00000000,1522306019999,37.29798319,70,65870.00000000,20.45614008,0
23,1522306020000,0.00031000,0.00031200,0.00031000,0.00031200,39136.00000000,1522306079999,12.19228974,22,34457.00000000,10.73732090,0
24,1522306080000,0.00031200,0.00031200,0.00030543,0.00030543,55866.00000000,1522306139999,17.29476635,44,10494.00000000,3.27320423,0
25,1522306140000,0.00030545,0.00030799,0.00030006,0.00030007,128601.00000000,1522306199999,38.86085323,85,11081.00000000,3.37606358,0
26,1522306200000,0.00030007,0.00030338,0.00029900,0.00029900,144026.00000000,1522306259999,43.25512456,80,22835.00000000,6.89142615,0
27,1522306260000,0.00029900,0.00031000,0.00029801,0.00030998,123283.00000000,1522306319999,37.60634371,84,108915.00000000,33.30024171,0
28,1522306320000,0.00030214,0.00030990,0.00030200,0.00030311,13078.00000000,1522306379999,3.99062938,21,3870.00000000,1.19930550,0
29,1522306380000,0.00030311,0.00030311,0.00029600,0.00029967,88948.00000000,1522306439999,26.79282660,55,42864.00000000,12.95602139,0
30,1522306440000,0.00029966,0.00030800,0.00029700,0.00030311,94173.00000000,1522306499999,28.31300350,41,70583.00000000,21.24849922,0
31,1522306500000,0.00030700,0.00030877,0.00030213,0.00030606,89789.00000000,1522306559999,27.60565466,40,85527.00000000,26.29836088,0
32,1522306560000,0.00030499,0.00030698,0.00030200,0.00030209,94002.00000000,1522306619999,28.61629423,37,15096.00000000,4.57238140,0
33,1522306620000,0.00030209,0.00030527,0.00029976,0.00030005,85028.00000000,1522306679999,25.53061882,49,66378.00000000,19.91615174,0
34,1522306680000,0.00030393,0.00030393,0.00030005,0.00030009,80998.00000000,1522306739999,24.37800647,49,67402.00000000,20.29723560,0
35,1522306740000,0.00030009,0.00030050,0.00029004,0.00030000,151636.00000000,1522306799999,45.09408087,114,45705.00000000,13.67572353,0
36,1522306800000,0.00029500,0.00030000,0.00029500,0.00029513,22649.00000000,1522306859999,6.70926110,17,12088.00000000,3.59318382,0
37,1522306860000,0.00029518,0.00029946,0.00029508,0.00029555,59345.00000000,1522306919999,17.54541401,26,14567.00000000,4.32860536,0
38,1522306920000,0.00029555,0.00029697,0.00028992,0.00029499,89805.00000000,1522306979999,26.29919262,61,5755.00000000,1.70052235,0
39,1522306980000,0.00029399,0.00029399,0.00028544,0.00028544,46790.00000000,1522307039999,13.56035212,29,12811.00000000,3.74006002,0
40,1522307040000,0.00028544,0.00028947,0.00028301,0.00028417,129323.00000000,1522307099999,36.90141722,63,60106.00000000,17.17366667,0
41,1522307100000,0.00028310,0.00028400,0.00027338,0.00027900,160009.00000000,1522307159999,44.71023810,83,36776.00000000,10.28453279,0
42,1522307160000,0.00028000,0.00028220,0.00027601,0.00028198,79764.00000000,1522307219999,22.38332982,36,39300.00000000,11.02416442,0
43,1522307220000,0.00028199,0.00028199,0.00027726,0.00028095,62906.00000000,1522307279999,17.52215689,48,24379.00000000,6.83433678,0
44,1522307280000,0.00028095,0.00028220,0.00027731,0.00028220,175630.00000000,1522307339999,49.28209173,100,159733.00000000,44.87097664,0
45,1522307340000,0.00028217,0.00028986,0.00027814,0.00028323,154868.00000000,1522307399999,44.03027416,69,124131.00000000,35.30310741,0
46,1522307400000,0.00028416,0.00028995,0.00028325,0.00028326,86722.00000000,1522307459999,24.82127785,48,54445.00000000,15.62708450,0
47,1522307460000,0.00028495,0.00028900,0.00028001,0.00028002,58540.00000000,1522307519999,16.58465536,49,27350.00000000,7.78900211,0
48,1522307520000,0.00028196,0.00028800,0.00028014,0.00028281,73085.00000000,1522307579999,20.86510481,51,41092.00000000,11.78603825,0
49,1522307580000,0.00028690,0.00029500,0.00028400,0.00029100,175746.00000000,1522307639999,50.64664997,83,128748.00000000,37.10333531,0
50,1522307640000,0.00029099,0.00030000,0.00029098,0.00029662,314153.00000000,1522307699999,93.06328372,234,268103.00000000,79.36580368,0
51,1522307700000,0.00029638,0.00030400,0.00029502,0.00029967,61045.00000000,1522307759999,18.23244429,56,45305.00000000,13.56294954,0
52,1522307760000,0.00029968,0.00030270,0.00029500,0.00029500,82017.00000000,1522307819999,24.27920689,63,3379.00000000,1.01082675,0
53,1522307820000,0.00029459,0.00029800,0.00029144,0.00029800,135995.00000000,1522307879999,39.98338007,84,105687.00000000,31.14705529,0
54,1522307880000,0.00029949,0.00029949,0.00029211,0.00029519,71595.00000000,1522307939999,21.30241472,52,20620.00000000,6.16023189,0
55,1522307940000,0.00029697,0.00029699,0.00029600,0.00029677,1674.00000000,1522307999999,0.49659557,7,923.00000000,0.27405108,0
56,1522308000000,0.00029600,0.00029600,0.00028501,0.00029088,99497.00000000,1522308059999,28.99686763,52,13038.00000000,3.78411776,0
57,1522308060000,0.00029087,0.00029098,0.00029000,0.00029088,58621.00000000,1522308119999,17.00783976,17,16323.00000000,4.73627721,0
58,1522308120000,0.00029003,0.00029003,0.00028637,0.00028893,8335.00000000,1522308179999,2.41358226,16,1181.00000000,0.34241831,0
59,1522308180000,0.00028893,0.00029118,0.00028893,0.00029118,3992.00000000,1522308239999,1.15709527,7,3445.00000000,0.99905056,0
60,1522308240000,0.00029118,0.00029348,0.00028550,0.00028600,18919.00000000,1522308299999,5.46827121,36,5028.00000000,1.45552411,0
61,1522308300000,0.00028550,0.00028601,0.00028000,0.00028599,274279.00000000,1522308359999,77.55729278,69,12513.00000000,3.57409997,0
62,1522308360000,0.00028169,0.00028890,0.00028169,0.00028887,14112.00000000,1522308419999,4.03648708,21,13237.00000000,3.78855694,0
63,1522308420000,0.00028800,0.00028893,0.00028422,0.00028422,35605.00000000,1522308479999,10.28346287,21,23893.00000000,6.90227632,0
64,1522308480000,0.00028419,0.00028762,0.00028419,0.00028426,16360.00000000,1522308539999,4.65183950,24,10801.00000000,3.07157579,0
65,1522308540000,0.00028510,0.00028779,0.00028507,0.00028779,48361.00000000,1522308599999,13.89550049,21,36718.00000000,10.55078125,0
66,1522308600000,0.00028787,0.00029018,0.00028787,0.00029018,16981.00000000,1522308659999,4.90939037,13,15952.00000000,4.61182311,0
67,1522308660000,0.00029330,0.00029400,0.00028788,0.00029101,58234.00000000,1522308719999,17.04249550,42,29479.00000000,8.62826673,0
68,1522308720000,0.00029100,0.00029100,0.00028802,0.00028994,14174.00000000,1522308779999,4.11072071,20,2744.00000000,0.79589402,0
69,1522308780000,0.00028994,0.00029200,0.00028890,0.00029200,12100.00000000,1522308839999,3.51609139,12,11566.00000000,3.36180277,0
70,1522308840000,0.00028923,0.00029100,0.00028800,0.00028800,33839.00000000,1522308899999,9.77424628,41,3418.00000000,0.99196818,0
71,1522308900000,0.00028800,0.00028960,0.00028701,0.00028946,9227.00000000,1522308959999,2.65324338,13,3820.00000000,1.10105712,0
72,1522308960000,0.00028906,0.00028943,0.00028906,0.00028922,6076.00000000,1522309019999,1.75685282,9,3613.00000000,1.04443007,0
73,1522309020000,0.00028801,0.00028801,0.00028400,0.00028401,75959.00000000,1522309079999,21.69415994,61,15081.00000000,4.30328521,0
74,1522309080000,0.00028401,0.00028719,0.00028300,0.00028400,17801.00000000,1522309139999,5.05803460,32,2996.00000000,0.85614003,0
75,1522309140000,0.00028300,0.00028401,0.00028100,0.00028297,18525.00000000,1522309199999,5.22418843,37,5416.00000000,1.52553575,0
76,1522309200000,0.00028296,0.00028300,0.00028100,0.00028174,32447.00000000,1522309259999,9.13394354,25,3017.00000000,0.85288444,0
77,1522309260000,0.00028174,0.00028206,0.00028102,0.00028206,12883.00000000,1522309319999,3.62973914,19,8524.00000000,2.40212008,0
78,1522309320000,0.00028209,0.00028569,0.00028209,0.00028500,4132.00000000,1522309379999,1.17886900,7,3732.00000000,1.06603300,0
79,1522309380000,0.00028500,0.00028502,0.00028500,0.00028502,12398.00000000,1522309439999,3.53343212,5,0.00000000,0.00000000,0
80,1522309440000,0.00028598,0.00028724,0.00028598,0.00028598,62470.00000000,1522309499999,17.88587842,26,23800.00000000,6.82694675,0
81,1522309500000,0.00028507,0.00028900,0.00028507,0.00028900,17283.00000000,1522309559999,4.95866972,10,17094.00000000,4.90479149,0
82,1522309560000,0.00028896,0.00028899,0.00028889,0.00028899,43711.00000000,1522309619999,12.62845517,18,31828.00000000,9.19557530,0
83,1522309620000,0.00028899,0.00028900,0.00028800,0.00028900,19222.00000000,1522309679999,5.54816559,29,9742.00000000,2.81438000,0
84,1522309680000,0.00028944,0.00029200,0.00028944,0.00029200,69799.00000000,1522309739999,20.23658065,30,55680.00000000,16.14990998,0
85,1522309740000,0.00029200,0.00029290,0.00029001,0.00029001,37654.00000000,1522309799999,10.99552816,22,1992.00000000,0.58287055,0
86,1522309800000,0.00029001,0.00029096,0.00028879,0.00029096,12988.00000000,1522309859999,3.76760481,17,1844.00000000,0.53647055,0
87,1522309860000,0.00028901,0.00028902,0.00028900,0.00028902,8305.00000000,1522309919999,2.40020397,10,616.00000000,0.17803632,0
88,1522309920000,0.00028902,0.00029094,0.00028902,0.00029079,15928.00000000,1522309979999,4.62558267,8,15928.00000000,4.62558267,0
89,1522309980000,0.00029080,0.00029097,0.00029073,0.00029087,31615.00000000,1522310039999,9.19561453,23,31036.00000000,9.02714348,0
90,1522310040000,0.00029087,0.00029500,0.00029087,0.00029490,103017.00000000,1522310099999,30.18462322,80,60464.00000000,17.72964072,0
91,1522310100000,0.00029671,0.00029800,0.00029000,0.00029670,140721.00000000,1522310159999,41.66897321,88,87993.00000000,26.15306250,0
92,1522310160000,0.00029797,0.00029800,0.00029606,0.00029796,48694.00000000,1522310219999,14.50803759,26,48362.00000000,14.40974567,0
93,1522310220000,0.00029796,0.00029967,0.00029613,0.00029967,251770.00000000,1522310279999,75.03314688,114,248606.00000000,74.09595239,0
94,1522310280000,0.00029998,0.00030000,0.00029619,0.00029619,70457.00000000,1522310339999,21.07037354,42,45716.00000000,13.71473548,0
95,1522310340000,0.00029630,0.00029700,0.00029335,0.00029600,12964.00000000,1522310399999,3.83185944,25,6854.00000000,2.02789996,0
96,1522310400000,0.00029600,0.00029794,0.00029362,0.00029790,8223.00000000,1522310459999,2.44040670,15,8173.00000000,2.42572570,0
97,1522310460000,0.00029518,0.00029800,0.00029382,0.00029500,55254.00000000,1522310519999,16.40289244,29,23764.00000000,7.03568074,0
98,1522310520000,0.00029390,0.00029783,0.00029390,0.00029781,6517.00000000,1522310579999,1.93776643,11,5201.00000000,1.54897905,0
99,1522310580000,0.00029500,0.00029500,0.00029370,0.00029370,17992.00000000,1522310639999,5.29357108,8,0.00000000,0.00000000,0
100,1522310640000,0.00029370,0.00029372,0.00029301,0.00029301,21448.00000000,1522310699999,6.29870951,12,1009.00000000,0.29636348,0
101,1522310700000,0.00029397,0.00029400,0.00028606,0.00028613,105112.00000000,1522310759999,30.52789768,93,5108.00000000,1.49679576,0
102,1522310760000,0.00028842,0.00029189,0.00028835,0.00029007,8186.00000000,1522310819999,2.36452296,13,7248.00000000,2.09245862,0
103,1522310820000,0.00028972,0.00029007,0.00028560,0.00028666,23614.00000000,1522310879999,6.77973195,18,3072.00000000,0.89064612,0
104,1522310880000,0.00028670,0.00028673,0.00028670,0.00028673,333.00000000,1522310939999,0.09547575,2,0.00000000,0.00000000,0
105,1522310940000,0.00028994,0.00028995,0.00028900,0.00028900,3131.00000000,1522310999999,0.90596030,6,1172.00000000,0.33980930,0
106,1522311000000,0.00028800,0.00028850,0.00028666,0.00028666,10567.00000000,1522311059999,3.03843956,21,1957.00000000,0.56456656,0
107,1522311060000,0.00028666,0.00028845,0.00028564,0.00028835,11145.00000000,1522311119999,3.19123437,16,1675.00000000,0.48219591,0
108,1522311120000,0.00028798,0.00028798,0.00028779,0.00028780,3838.00000000,1522311179999,1.10464379,10,3838.00000000,1.10464379,0
109,1522311180000,0.00028780,0.00028780,0.00028760,0.00028770,10180.00000000,1522311239999,2.92875130,6,10180.00000000,2.92875130,0
110,1522311240000,0.00028770,0.00028771,0.00028770,0.00028770,31563.00000000,1522311299999,9.08069172,15,5529.00000000,1.59069330,0
111,1522311300000,0.00028770,0.00028770,0.00028601,0.00028601,47168.00000000,1522311359999,13.52335334,17,508.00000000,0.14529308,0
112,1522311360000,0.00028601,0.00028602,0.00028566,0.00028602,21693.00000000,1522311419999,6.20377405,13,19279.00000000,5.51416804,0
113,1522311420000,0.00028600,0.00028970,0.00028600,0.00028970,48404.00000000,1522311479999,13.87555880,16,48404.00000000,13.87555880,0
114,1522311480000,0.00028801,0.00028988,0.00028800,0.00028988,17336.00000000,1522311539999,5.01527735,20,11171.00000000,3.23025334,0
115,1522311540000,0.00028945,0.00028988,0.00028929,0.00028980,9717.00000000,1522311599999,2.81409413,8,6406.00000000,1.85486611,0
116,1522311600000,0.00028979,0.00028999,0.00028979,0.00028999,690.00000000,1522311659999,0.20008570,4,690.00000000,0.20008570,0
117,1522311660000,0.00028999,0.00029014,0.00028950,0.00029014,116720.00000000,1522311719999,33.84118377,51,115981.00000000,33.62688116,0
118,1522311720000,0.00029015,0.00029200,0.00028701,0.00029016,21974.00000000,1522311779999,6.39143869,29,5462.00000000,1.59116304,0
119,1522311780000,0.00029016,0.00029016,0.00028808,0.00029015,2002.00000000,1522311839999,0.58000407,4,671.00000000,0.19469065,0
120,1522311840000,0.00029007,0.00029012,0.00028994,0.00028995,2071.00000000,1522311899999,0.60070875,5,2071.00000000,0.60070875,0
121,1522311900000,0.00028836,0.00028836,0.00028800,0.00028800,26929.00000000,1522311959999,7.76197969,18,423.00000000,0.12196359,0
122,1522311960000,0.00028800,0.00028800,0.00028788,0.00028800,20335.00000000,1522312019999,5.85605208,14,9869.00000000,2.84184408,0
123,1522312020000,0.00028800,0.00028826,0.00028800,0.00028800,6224.00000000,1522312079999,1.79303668,3,2018.00000000,0.58170868,0
124,1522312080000,0.00028801,0.00028826,0.00028800,0.00028826,3761.00000000,1522312139999,1.08330269,5,511.00000000,0.14730086,0
125,1522312140000,0.00028827,0.00028827,0.00028700,0.00028700,13029.00000000,1522312199999,3.74491544,17,0.00000000,0.00000000,0
126,1522312200000,0.00028706,0.00028706,0.00028700,0.00028700,1714.00000000,1522312259999,0.49192634,3,0.00000000,0.00000000,0
127,1522312260000,0.00028701,0.00028701,0.00028603,0.00028700,39837.00000000,1522312319999,11.43000659,18,6411.00000000,1.83995005,0
128,1522312320000,0.00028700,0.00028700,0.00028100,0.00028311,220744.00000000,1522312379999,62.54217201,69,38867.00000000,10.93428903,0
129,1522312380000,0.00028570,0.00028603,0.00027998,0.00028493,215906.00000000,1522312439999,60.63715031,44,34179.00000000,9.64965294,0
130,1522312440000,0.00028030,0.00028492,0.00028000,0.00028074,70686.00000000,1522312499999,19.84491109,37,16740.00000000,4.72138217,0
131,1522312500000,0.00028001,0.00028381,0.00027975,0.00027975,44871.00000000,1522312559999,12.56380979,29,3670.00000000,1.02812197,0
132,1522312560000,0.00027975,0.00027977,0.00027777,0.00027777,37366.00000000,1522312619999,10.42103560,38,10296.00000000,2.87364474,0
133,1522312620000,0.00027967,0.00028000,0.00027533,0.00028000,236647.00000000,1522312679999,65.54597063,83,94119.00000000,26.25530886,0
134,1522312680000,0.00028000,0.00028011,0.00028000,0.00028010,16252.00000000,1522312739999,4.55104500,9,11777.00000000,3.29756000,0
135,1522312740000,0.00028010,0.00028010,0.00028010,0.00028010,0.00000000,1522312799999,0.00000000,0,0.00000000,0.00000000,0
136,1522312800000,0.00028319,0.00028454,0.00028103,0.00028448,43311.00000000,1522312859999,12.31057405,36,26594.00000000,7.56529307,0
137,1522312860000,0.00028448,0.00028452,0.00028200,0.00028447,6627.00000000,1522312919999,1.88487263,13,835.00000000,0.23753295,0
138,1522312920000,0.00028446,0.00028446,0.00028446,0.00028446,206.00000000,1522312979999,0.05859876,1,206.00000000,0.05859876,0
139,1522312980000,0.00028446,0.00028447,0.00028446,0.00028447,885.00000000,1522313039999,0.25175206,3,885.00000000,0.25175206,0
140,1522313040000,0.00028251,0.00028251,0.00028010,0.00028010,16858.00000000,1522313099999,4.73351635,17,0.00000000,0.00000000,0
141,1522313100000,0.00028000,0.00028000,0.00027800,0.00027998,15113.00000000,1522313159999,4.21621220,17,414.00000000,0.11591172,0
142,1522313160000,0.00028000,0.00028100,0.00027800,0.00028000,8910.00000000,1522313219999,2.48688254,11,508.00000000,0.14226564,0
143,1522313220000,0.00027810,0.00027810,0.00027810,0.00027810,1480.00000000,1522313279999,0.41158800,2,0.00000000,0.00000000,0
144,1522313280000,0.00028000,0.00028094,0.00028000,0.00028094,942.00000000,1522313339999,0.26389348,2,942.00000000,0.26389348,0
145,1522313340000,0.00028099,0.00028100,0.00027810,0.00027820,15276.00000000,1522313399999,4.28084967,15,10367.00000000,2.91303282,0
146,1522313400000,0.00028080,0.00028248,0.00027800,0.00028248,69258.00000000,1522313459999,19.27778132,28,54246.00000000,15.09943227,0
147,1522313460000,0.00028236,0.00028236,0.00028236,0.00028236,63.00000000,1522313519999,0.01778868,1,63.00000000,0.01778868,0
148,1522313520000,0.00028232,0.00028232,0.00028057,0.00028057,551.00000000,1522313579999,0.15471474,3,67.00000000,0.01891544,0
149,1522313580000,0.00028100,0.00028100,0.00028100,0.00028100,10283.00000000,1522313639999,2.88952300,3,0.00000000,0.00000000,0
150,1522313640000,0.00028115,0.00028120,0.00028115,0.00028120,391.00000000,1522313699999,0.10994210,2,142.00000000,0.03992330,0
151,1522313700000,0.00028140,0.00028199,0.00028115,0.00028115,5327.00000000,1522313759999,1.49927932,6,1330.00000000,0.37504670,0
152,1522313760000,0.00028228,0.00028245,0.00028100,0.00028100,32384.00000000,1522313819999,9.12091645,18,15000.00000000,4.23542278,0
153,1522313820000,0.00028100,0.00028100,0.00027999,0.00028000,54233.00000000,1522313879999,15.20859862,19,29222.00000000,8.19060298,0
154,1522313880000,0.00028000,0.00028036,0.00027982,0.00028036,36790.00000000,1522313939999,10.30137847,20,36515.00000000,10.22442797,0
155,1522313940000,0.00027982,0.00028038,0.00027982,0.00028038,20595.00000000,1522313999999,5.77337275,16,12880.00000000,3.61123665,0
156,1522314000000,0.00027987,0.00027987,0.00027982,0.00027982,7833.00000000,1522314059999,2.19200076,4,0.00000000,0.00000000,0
157,1522314060000,0.00027987,0.00028037,0.00027905,0.00027905,8854.00000000,1522314119999,2.47686716,7,2682.00000000,0.75192356,0
158,1522314120000,0.00027903,0.00027907,0.00027903,0.00027905,23059.00000000,1522314179999,6.43478203,27,11548.00000000,3.22264436,0
159,1522314180000,0.00027906,0.00027906,0.00027903,0.00027905,21894.00000000,1522314239999,6.10945095,7,0.00000000,0.00000000,0
160,1522314240000,0.00028034,0.00028038,0.00028034,0.00028037,21862.00000000,1522314299999,6.12928623,11,21862.00000000,6.12928623,0
161,1522314300000,0.00027921,0.00028038,0.00027921,0.00028029,37567.00000000,1522314359999,10.52717718,16,27334.00000000,7.66325411,0
162,1522314360000,0.00028000,0.00028038,0.00027981,0.00028038,162972.00000000,1522314419999,45.69098665,48,161330.00000000,45.23147080,0
163,1522314420000,0.00028038,0.00028444,0.00027980,0.00028444,104924.00000000,1522314479999,29.41594421,26,81457.00000000,22.84131693,0
164,1522314480000,0.00028399,0.00028400,0.00028200,0.00028201,2517.00000000,1522314539999,0.71342781,4,1818.00000000,0.51630450,0
165,1522314540000,0.00028150,0.00028390,0.00028150,0.00028167,4646.00000000,1522314599999,1.31606117,7,3402.00000000,0.96581961,0
166,1522314600000,0.00028200,0.00028376,0.00028200,0.00028210,9122.00000000,1522314659999,2.58610580,8,1052.00000000,0.29851552,0
167,1522314660000,0.00028350,0.00028377,0.00028235,0.00028377,8315.00000000,1522314719999,2.35787172,14,7796.00000000,2.21104807,0
168,1522314720000,0.00028377,0.00028563,0.00028301,0.00028563,47624.00000000,1522314779999,13.53975516,23,46689.00000000,13.27449785,0
169,1522314780000,0.00028561,0.00028721,0.00028300,0.00028322,73356.00000000,1522314839999,20.90519138,45,26555.00000000,7.62013311,0
170,1522314840000,0.00028377,0.00028500,0.00028322,0.00028500,17481.00000000,1522314899999,4.97917741,11,2509.00000000,0.71341500,0
171,1522314900000,0.00028690,0.00028700,0.00028360,0.00028374,47824.00000000,1522314959999,13.66657582,17,15881.00000000,4.55710888,0
172,1522314960000,0.00028699,0.00028702,0.00028445,0.00028702,26464.00000000,1522315019999,7.57146591,16,18846.00000000,5.40452581,0
173,1522315020000,0.00028700,0.00028701,0.00028360,0.00028374,129539.00000000,1522315079999,36.77543281,58,1458.00000000,0.41842198,0
174,1522315080000,0.00028374,0.00028646,0.00028321,0.00028646,24215.00000000,1522315139999,6.86528331,17,17230.00000000,4.88665429,0
175,1522315140000,0.00028351,0.00028597,0.00028344,0.00028597,13430.00000000,1522315199999,3.82766278,9,8344.00000000,2.38592381,0
176,1522315200000,0.00028596,0.00028597,0.00028370,0.00028376,25751.00000000,1522315259999,7.34912519,11,20481.00000000,5.84299013,0
177,1522315260000,0.00028372,0.00028376,0.00028322,0.00028374,16146.00000000,1522315319999,4.57887134,17,5717.00000000,1.62223558,0
178,1522315320000,0.00028323,0.00028376,0.00028323,0.00028371,10256.00000000,1522315379999,2.90823115,8,4893.00000000,1.38842350,0
179,1522315380000,0.00028352,0.00028352,0.00028230,0.00028230,59320.00000000,1522315439999,16.78766212,23,0.00000000,0.00000000,0
180,1522315440000,0.00028210,0.00028210,0.00028100,0.00028101,10480.00000000,1522315499999,2.94715387,13,0.00000000,0.00000000,0
181,1522315500000,0.00028101,0.00028101,0.00028100,0.00028101,28869.00000000,1522315559999,8.11247396,26,28496.00000000,8.00766096,0
182,1522315560000,0.00028101,0.00028101,0.00028100,0.00028100,70675.00000000,1522315619999,19.85999111,22,30900.00000000,8.68316314,0
183,1522315620000,0.00028103,0.00028232,0.00028000,0.00028000,127302.00000000,1522315679999,35.74514511,18,14348.00000000,4.05059913,0
184,1522315680000,0.00028011,0.00028011,0.00028003,0.00028003,2157.00000000,1522315739999,0.60418463,3,0.00000000,0.00000000,0
185,1522315740000,0.00028006,0.00028006,0.00028006,0.00028006,438.00000000,1522315799999,0.12266628,1,0.00000000,0.00000000,0
186,1522315800000,0.00028006,0.00028006,0.00028006,0.00028006,0.00000000,1522315859999,0.00000000,0,0.00000000,0.00000000,0
187,1522315860000,0.00028024,0.00028149,0.00028001,0.00028149,46607.00000000,1522315919999,13.05345744,17,215.00000000,0.06042107,0
188,1522315920000,0.00028015,0.00028015,0.00027950,0.00027950,166649.00000000,1522315979999,46.65359637,74,0.00000000,0.00000000,0
189,1522315980000,0.00027950,0.00027950,0.00027876,0.00027876,15802.00000000,1522316039999,4.40995353,16,0.00000000,0.00000000,0
190,1522316040000,0.00027999,0.00027999,0.00027856,0.00027856,12573.00000000,1522316099999,3.50399129,17,5744.00000000,1.60157743,0
191,1522316100000,0.00027868,0.00027869,0.00027800,0.00027800,62952.00000000,1522316159999,17.53055893,18,0.00000000,0.00000000,0
192,1522316160000,0.00027988,0.00027993,0.00027790,0.00027993,46839.00000000,1522316219999,13.08918846,20,39096.00000000,10.93661684,0
193,1522316220000,0.00027993,0.00027993,0.00027448,0.00027993,146289.00000000,1522316279999,40.30903809,44,12923.00000000,3.58947879,0
194,1522316280000,0.00027607,0.00027618,0.00027098,0.00027198,168338.00000000,1522316339999,45.93724843,85,1116.00000000,0.30250893,0
195,1522316340000,0.00027198,0.00027616,0.00027006,0.00027615,25170.00000000,1522316399999,6.85060146,56,15680.00000000,4.27917506,0
196,1522316400000,0.00027500,0.00027500,0.00027250,0.00027250,15630.00000000,1522316459999,4.26284231,25,0.00000000,0.00000000,0
197,1522316460000,0.00027250,0.00027388,0.00027000,0.00027120,107124.00000000,1522316519999,28.95174601,19,438.00000000,0.11990980,0
198,1522316520000,0.00027444,0.00027444,0.00027125,0.00027125,5159.00000000,1522316579999,1.40267182,6,1030.00000000,0.28267320,0
199,1522316580000,0.00027142,0.00027200,0.00027000,0.00027000,190079.00000000,1522316639999,51.39136545,77,7258.00000000,1.97367915,0
200,1522316640000,0.00026997,0.00026997,0.00026660,0.00026903,58659.00000000,1522316699999,15.75158040,49,44361.00000000,11.91555754,0
201,1522316700000,0.00026903,0.00027125,0.00026850,0.00027125,16095.00000000,1522316759999,4.34325564,20,4806.00000000,1.29574850,0
202,1522316760000,0.00027099,0.00027100,0.00027002,0.00027010,11249.00000000,1522316819999,3.03831735,12,152.00000000,0.04119053,0
203,1522316820000,0.00027000,0.00027007,0.00026850,0.00027007,4624.00000000,1522316879999,1.24613424,10,1797.00000000,0.48524044,0
204,1522316880000,0.00026959,0.00027010,0.00026900,0.00026906,50459.00000000,1522316939999,13.61182527,24,27093.00000000,7.31527452,0
205,1522316940000,0.00027170,0.00027200,0.00027170,0.00027200,8878.00000000,1522316999999,2.41466900,7,8878.00000000,2.41466900,0
206,1522317000000,0.00027399,0.00027900,0.00027399,0.00027498,56186.00000000,1522317059999,15.43456307,32,30559.00000000,8.38736065,0
207,1522317060000,0.00027497,0.00027831,0.00027408,0.00027797,20992.00000000,1522317119999,5.77207922,17,16293.00000000,4.48412232,0
208,1522317120000,0.00027797,0.00027797,0.00027566,0.00027566,9096.00000000,1522317179999,2.51338754,17,2000.00000000,0.55180000,0
209,1522317180000,0.00027566,0.00027800,0.00027566,0.00027590,10682.00000000,1522317239999,2.95213637,10,5831.00000000,1.61449547,0
210,1522317240000,0.00027600,0.00027739,0.00027590,0.00027591,6371.00000000,1522317299999,1.76055590,13,1581.00000000,0.43855359,0
211,1522317300000,0.00027591,0.00027698,0.00027515,0.00027569,24064.00000000,1522317359999,6.63802969,19,1178.00000000,0.32465854,0
212,1522317360000,0.00027564,0.00027564,0.00027401,0.00027509,4063.00000000,1522317419999,1.11745079,9,2948.00000000,0.81116462,0
213,1522317420000,0.00027401,0.00027503,0.00027184,0.00027184,15183.00000000,1522317479999,4.15885763,14,27.00000000,0.00742581,0
214,1522317480000,0.00027389,0.00027389,0.00027387,0.00027389,842.00000000,1522317539999,0.23061436,3,842.00000000,0.23061436,0
215,1522317540000,0.00027389,0.00027389,0.00027389,0.00027389,0.00000000,1522317599999,0.00000000,0,0.00000000,0.00000000,0
216,1522317600000,0.00027300,0.00027300,0.00027300,0.00027300,327.00000000,1522317659999,0.08927100,2,327.00000000,0.08927100,0
217,1522317660000,0.00027300,0.00027529,0.00026900,0.00027343,39612.00000000,1522317719999,10.81395605,31,5525.00000000,1.51665270,0
218,1522317720000,0.00027313,0.00027314,0.00027313,0.00027314,273.00000000,1522317779999,0.07456557,2,273.00000000,0.07456557,0
219,1522317780000,0.00027101,0.00027343,0.00027016,0.00027314,4918.00000000,1522317839999,1.33852471,8,2141.00000000,0.58479363,0
220,1522317840000,0.00027300,0.00027300,0.00027300,0.00027300,131.00000000,1522317899999,0.03576300,1,131.00000000,0.03576300,0
221,1522317900000,0.00027300,0.00027314,0.00027110,0.00027140,10238.00000000,1522317959999,2.77974478,14,1152.00000000,0.31345210,0
222,1522317960000,0.00027110,0.00027110,0.00027099,0.00027110,3846.00000000,1522318019999,1.04237060,7,269.00000000,0.07291820,0
